<svg xmlns="http://www.w3.org/2000/svg" width="19.5" height="19.5" viewBox="0 0 19.5 19.5">
  <g id="Group_1244" data-name="Group 1244" transform="translate(673 -1120.75) rotate(90)">
    <line id="Line_13" data-name="Line 13" y2="19.5" transform="translate(1130.5 653.5)" fill="none" stroke="#000" stroke-width="2"/>
    <line id="Line_16" data-name="Line 16" y2="19.5" transform="translate(1140.25 663.25) rotate(90)" fill="none" stroke="#000" stroke-width="2"/>
  </g>
</svg>
