<svg xmlns="http://www.w3.org/2000/svg" width="12" height="12" viewBox="0 0 49.498 49.498">
  <g id="download_1_" data-name="download (1)" transform="translate(-25.251 -977.613)">
    <path fill="#CC0000" id="Path_1" data-name="Path 1" d="M73.335,977.613,50,1000.948,26.665,977.613l-1.414,1.414,23.335,23.334L25.251,1025.7l1.414,1.414L50,1003.776l23.335,23.335,1.414-1.414-23.335-23.334,23.335-23.334Z"/>
  </g>
</svg>
